<svg xmlns="http://www.w3.org/2000/svg" width="256" height="256">
    <g fill="#35bf5c">
        <path d="M0 0v256h72V72h92V0z"/>
        <path d="M92 92v164h72V92zM184 0v256h72V0z"/>
    </g>
</svg>
