------------------------------------------------------------------------
r1224401 | scripty | 2011-03-11 02:32:53 +1300 (Fri, 11 Mar 2011) | 1 line

SVN_SILENT made messages (.desktop file)
------------------------------------------------------------------------
r1224589 | scripty | 2011-03-13 02:38:56 +1300 (Sun, 13 Mar 2011) | 1 line

SVN_SILENT made messages (.desktop file)
------------------------------------------------------------------------
