------------------------------------------------------------------------
r1238833 | scripty | 2011-06-30 15:39:53 +1200 (Thu, 30 Jun 2011) | 1 line

SVN_SILENT made messages (.desktop file)
------------------------------------------------------------------------
